abcde-efbad-cf  : 
        {a : 48, c : 24, b : 32, e : 48, d : 32, f : 32}
abcd-dbea-ec  :  
        {a : 72, c : 24, b : 72, e : 72, d : 72}
abc-bda-dc  :  
        {a : 312, c : 296, b : 312, d : 312}
abcdef-dega-gfbc  :  
        {a : 24, c : 16, b : 16, e : 16, d : 24, g : 24, f : 16}
abc-adec-ebd  :  
        {a : 72, c : 72, b : 72, e : 72, d : 72}
ab-cad-dcb  :  
        {a : 312, c : 312, b : 296, d : 312}
ab-ac-cb  :  
        {a : 5136, c : 5136, b : 5120}
abcd-aebf-fdec  :  
        {a : 72, c : 72, b : 72, e : 72, d : 72, f : 72}


